%YAML 1.1
%TAG !u! tag:unity3d.com,2011:
--- !u!1045 &1
EditorBuildSettings:
  m_ObjectHideFlags: 0
  serializedVersion: 2
  m_Scenes:
  - enabled: 0
    path: 
    guid: 00000000000000000000000000000000
  - enabled: 1
    path: Assets/Scenes/Executors/Basic.unity
    guid: 2bdfc56377094435b8d16a0e8a32094a
  - enabled: 1
    path: Assets/Scenes/Executors/Observables.unity
    guid: 74314ba5dca5847a6bdbf5f557164f76
  - enabled: 1
    path: Assets/Scenes/Executors/ObservableTopPanel.unity
    guid: 5a0e4d34dacae4ab39e11b170324280e
  - enabled: 1
    path: Assets/Scenes/Executors/UnityEvents.unity
    guid: 70970656e1eb142a196e4913e0f794ef
  - enabled: 1
    path: Assets/Scenes/SceneLoading/TopPanel.unity
    guid: 33b3ea536ea934dfd806d5e8a5bcbd58
  - enabled: 1
    path: Assets/Scenes/SceneLoading/EditName.unity
    guid: 4f8f2235b7a344611af034bd98690a7d
  - enabled: 1
    path: Assets/Scenes/SceneLoading/1_LoadWithInjection/Main.unity
    guid: 20bad6adfbb6c42c9a0169d719ad262d
  - enabled: 1
    path: Assets/Scenes/SceneLoading/1_LoadWithInjection/Avatar.unity
    guid: 44bf3bc6ac22c40c3b51dd83cd5d6c5b
  - enabled: 1
    path: Assets/Scenes/SceneLoading/2_ContractNames/Main.unity
    guid: 75327190d37c948c9844e89318cb9fd2
  - enabled: 1
    path: Assets/Scenes/SceneLoading/2_ContractNames/TopPanelWithContract.unity
    guid: 3f5b9ebc795a74b9f929f25ef71bb54e
  - enabled: 1
    path: Assets/Scenes/SceneLoading/2_ContractNames/EditNameWithContract.unity
    guid: 06953587331b246f088722ef7e605b1d
  - enabled: 1
    path: Assets/Scenes/SceneLoading/3_SceneDecorator/Decorator.unity
    guid: 5400e59bdb02c4ee5b50a094f154eb1e
  - enabled: 1
    path: Assets/Scenes/SceneLoading/3_SceneDecorator/Main.unity
    guid: b356938e6d715432ebca9d3032f16351
  - enabled: 1
    path: Assets/Scenes/SceneLoading/4_SceneDependency/Main.unity
    guid: 1e9bbae371a704193bdc2bd58de839e2
  - enabled: 1
    path: Assets/Scenes/SceneLoading/4_SceneDependency/Window.unity
    guid: f5662b1957f57487f86c1faf0442e530
  - enabled: 1
    path: Assets/Scenes/SceneLoading/4_SceneDependency/WindowTab1.unity
    guid: 777a2a209d6f64de7901487999989b23
  - enabled: 1
    path: Assets/Scenes/SceneLoading/4_SceneDependency/WindowTab2.unity
    guid: 75e018bc0be05406dbcb826270b578c8
  - enabled: 1
    path: Assets/Scenes/SceneLoading/4_SceneDependency/WindowTab3.unity
    guid: 81cf560e8b626472f8f0000b70fd3ebd
  - enabled: 1
    path: Assets/Scenes/SceneLoading/4_SceneDependency/WindowTab4.unity
    guid: 242a6bd5c76894d329b98cc0f8fe3992
  - enabled: 1
    path: Assets/Scenes/SceneLoading/5_SmartSceneDependency/Main.unity
    guid: 291d5cadbfe06429baaed56b6357ed62
  - enabled: 1
    path: Assets/Scenes/SceneLoading/5_SmartSceneDependency/WindowSD.unity
    guid: de41e7e506dc344e1bacbc71bdf16fc9
  - enabled: 1
    path: Assets/Scenes/SceneLoading/5_SmartSceneDependency/WindowSDTab1.unity
    guid: dfa669519203243a1ad6da157e37aa28
  - enabled: 1
    path: Assets/Scenes/SceneLoading/5_SmartSceneDependency/WindowSDTab2.unity
    guid: 56a21c55a3074428eb900ef69fd10816
  - enabled: 1
    path: Assets/Scenes/SceneLoading/5_SmartSceneDependency/WindowSDTab3.unity
    guid: 540ffadf822054104a1f95ae847fa834
  - enabled: 1
    path: Assets/Scenes/SceneLoading/5_SmartSceneDependency/WindowSDTab4.unity
    guid: 48bf33c7365954f36a397b67fde55dbb
  m_configObjects: {}
